1	-19.2	2.2	wt350
	-19.2	15.1	-23.1	4.2	2.2	5	22	2020
6	-19.1	2.2	wt320
	-19.1	15.0	-23.1	4.2	2.2	5	22	2020
	-19.1	15.0	-23.1	4.2	2.2	5	22	2020
	-19.1	15.0	-23.1	4.2	2.2	5	22	2020
	-19.1	15.0	-23.1	4.2	2.2	5	22	2020
	-19.1	15.0	-23.1	4.2	2.2	5	22	2020
	-19.1	15.0	-23.1	4.2	2.2	5	22	2020
6	-19.2	2.2	wt320
	-19.2	15.1	-23.1	4.2	2.2	5	22	2020
	-19.2	15.1	-23.1	4.2	2.2	5	22	2020
	-19.2	15.1	-23.1	4.2	2.2	5	22	2020
	-19.2	15.1	-23.1	4.2	2.2	5	22	2020
	-19.2	15.1	-23.1	4.2	2.2	5	22	2020
	-19.2	15.1	-23.1	4.2	2.2	5	22	2020
6	-19.3	2.2	wt320
	-19.3	15.0	-23.1	4.2	2.2	5	22	2020
	-19.3	15.0	-23.1	4.2	2.2	5	22	2020
	-19.3	15.0	-23.1	4.2	2.2	5	22	2020
	-19.3	15.0	-23.1	4.2	2.2	5	22	2020
	-19.3	15.0	-23.1	4.2	2.2	5	22	2020
	-19.3	15.0	-23.1	4.2	2.2	5	22	2020